…
### **Running BLAST against the local database**

Since the database is a protein database and the query contains nucleotide sequences, we will use `blastx`.

```r
#Get the sequences of the genomes
qry_seqs <- system.file("extdata","corona_viruses_genomes.fa",package = "blastinR" )

blast_output <- blstinr('blastx', "/path/to/corona_spike_aa", qry_seqs, taxid = TRUE)
```
The output dataframe:

```
# A tibble: 123 × 14
   qseqid      sseqid pident length mismatch gapopen qstart  qend sstart  send    evalue bitscore staxids
   <chr>       <chr>   <dbl>  <int>    <int>   <int>  <int> <int>  <int> <int>     <dbl>    <dbl>   <int>
 1 Bat_corona… Bat_c…  100     1258        0       0  21578 25351     12  1269 0           2545        22
 2 Bat_corona… SARS_…   97.4   1262       29       1  21578 25351     12  1273 0           2481        55
 3 Bat_corona… SARS-…   97.0   1262       34       1  21578 25351     12  1273 0           2467        44
 4 Bat_corona… Pango…   89.7   1258      124       3  21578 25351     13  1265 0           2293        33
 5 Bat_corona… SARS_…   77.7   1246      258       6  21620 25351     28  1255 0           1988        66
 6 Bat_corona… SARS_…   77.6   1246      259       6  21620 25351     28  1255 0           1988        77
 7 Bat_corona… Camel…   34.7   1023      587      25  22331 25219    311  1312 1.82e-159    527        11
 8 Bat_corona… MERS_…   34.6   1022      589      25  22331 25219    311  1312 7.70e-159    525        99
 9 Bat_corona… MERS_…   24.2     91       50       3  16822 17049     78   164 7.9 e+  0     23.9      99
10 Bat_corona… MERS_…   34.5   1023      589      25  22331 25219    311  1312 1.91e-158    524        88
# ℹ 113 more rows
# ℹ 1 more variable: Range <int>
# ℹ Use `print(n = ...)` to see more rows
```
…
